%YAML 1.1
%TAG !u! tag:unity3d.com,2011:
--- !u!114 &11400000
MonoBehaviour:
  m_ObjectHideFlags: 0
  m_CorrespondingSourceObject: {fileID: 0}
  m_PrefabInstance: {fileID: 0}
  m_PrefabAsset: {fileID: 0}
  m_GameObject: {fileID: 0}
  m_Enabled: 1
  m_EditorHideFlags: 0
  m_Script: {fileID: 11500000, guid: 3cb8b0bd972c408b827081aa4e0fd6ef, type: 3}
  m_Name: Dialogue2
  m_EditorClassIdentifier: 
  backgroundId: 0
  number: 2
  sentences:
  - track: 0
    character: 2
    text: I love you.
    characterSpriteIdId: 6
    sfxIdId: 0
    characterAnimationId: 0
    characterEmoteId: 6
    questionId: 0
    musicId: 0
    isEndOfTrack: 0
  - track: 0
    character: 2
    text: 
    characterSpriteIdId: 6
    sfxIdId: 0
    characterAnimationId: 0
    characterEmoteId: 0
    questionId: 3
    musicId: 0
    isEndOfTrack: 0
  - track: 1
    character: 1
    text: D-did the dog just talk!!??
    characterSpriteIdId: 6
    sfxIdId: 0
    characterAnimationId: 0
    characterEmoteId: 0
    questionId: 0
    musicId: 0
    isEndOfTrack: 0
  - track: 1
    character: 0
    text: No...?
    characterSpriteIdId: 4
    sfxIdId: 0
    characterAnimationId: 0
    characterEmoteId: 0
    questionId: 0
    musicId: 0
    isEndOfTrack: 0
  - track: 1
    character: 2
    text: Woof!
    characterSpriteIdId: 6
    sfxIdId: 0
    characterAnimationId: 1
    characterEmoteId: 4
    questionId: 0
    musicId: 0
    isEndOfTrack: 0
  - track: 1
    character: 1
    text: Huh...
    characterSpriteIdId: 6
    sfxIdId: 0
    characterAnimationId: 0
    characterEmoteId: 0
    questionId: 0
    musicId: 0
    isEndOfTrack: 1
  - track: 2
    character: 0
    text: Awww, you're getting along already!!
    characterSpriteIdId: 1
    sfxIdId: 0
    characterAnimationId: 0
    characterEmoteId: 6
    questionId: 0
    musicId: 0
    isEndOfTrack: 0
  - track: 2
    character: 2
    text: Adopt me.
    characterSpriteIdId: 6
    sfxIdId: 0
    characterAnimationId: 1
    characterEmoteId: 6
    questionId: 0
    musicId: 0
    isEndOfTrack: 0
  - track: 2
    character: 1
    text: ......................
    characterSpriteIdId: 6
    sfxIdId: 0
    characterAnimationId: 0
    characterEmoteId: 0
    questionId: 0
    musicId: 0
    isEndOfTrack: 1
  - track: 0
    character: 1
    text: Anyway, you were saying?
    characterSpriteIdId: 0
    sfxIdId: 0
    characterAnimationId: 0
    characterEmoteId: 0
    questionId: 0
    musicId: 0
    isEndOfTrack: 0
  - track: 0
    character: 0
    text: Ah yes, let me continue...
    characterSpriteIdId: 0
    sfxIdId: 0
    characterAnimationId: 0
    characterEmoteId: 0
    questionId: 0
    musicId: 0
    isEndOfTrack: 0
