%YAML 1.1
%TAG !u! tag:unity3d.com,2011:
--- !u!114 &11400000
MonoBehaviour:
  m_ObjectHideFlags: 0
  m_CorrespondingSourceObject: {fileID: 0}
  m_PrefabInstance: {fileID: 0}
  m_PrefabAsset: {fileID: 0}
  m_GameObject: {fileID: 0}
  m_Enabled: 1
  m_EditorHideFlags: 0
  m_Script: {fileID: 11500000, guid: 3cb8b0bd972c408b827081aa4e0fd6ef, type: 3}
  m_Name: Dialogue0
  m_EditorClassIdentifier: 
  backgroundId: 0
  number: 0
  sentences:
  - track: 0
    character: 0
    text: We don't normally walk around this part of town...
    characterSpriteIdId: 0
    sfxIdId: 0
    characterAnimationId: 0
    characterEmoteId: 0
    questionId: 0
    musicId: 4
    isEndOfTrack: 0
  - track: 0
    character: 0
    text: I wonder if there's anything interesting here...
    characterSpriteIdId: 4
    sfxIdId: 0
    characterAnimationId: 0
    characterEmoteId: 0
    questionId: 0
    musicId: 0
    isEndOfTrack: 0
  - track: 0
    character: 1
    text: 
    characterSpriteIdId: 4
    sfxIdId: 0
    characterAnimationId: 0
    characterEmoteId: 0
    questionId: 1
    musicId: 0
    isEndOfTrack: 0
  - track: 1
    character: 0
    text: A tree...? Why are you pointing that out?
    characterSpriteIdId: 0
    sfxIdId: 0
    characterAnimationId: 0
    characterEmoteId: 0
    questionId: 0
    musicId: 0
    isEndOfTrack: 0
  - track: 1
    character: 1
    text: Look at the tree, don't look to your left!
    characterSpriteIdId: 0
    sfxIdId: 0
    characterAnimationId: 0
    characterEmoteId: 0
    questionId: 0
    musicId: 0
    isEndOfTrack: 1
  - track: 0
    character: 0
    text: Huh?
    characterSpriteIdId: 4
    sfxIdId: 0
    characterAnimationId: 0
    characterEmoteId: 0
    questionId: 0
    musicId: 0
    isEndOfTrack: 0
  - track: 0
    character: 0
    text: Oh my god a pet store!! We have to go in!
    characterSpriteIdId: 1
    sfxIdId: 0
    characterAnimationId: 1
    characterEmoteId: 4
    questionId: 0
    musicId: 0
    isEndOfTrack: 0
  - track: 0
    character: 1
    text: We all know the inevitable outcome here...
    characterSpriteIdId: 1
    sfxIdId: 0
    characterAnimationId: 0
    characterEmoteId: 0
    questionId: 0
    musicId: 0
    isEndOfTrack: 0
  - track: 0
    character: 0
    text: Let's get a puppy!!
    characterSpriteIdId: 1
    sfxIdId: 0
    characterAnimationId: 1
    characterEmoteId: 4
    questionId: 0
    musicId: 0
    isEndOfTrack: 0
